16 Reshaping – COMP/STAT112 Notebook
…
308
2
250.80

Part a

Use pivot_longer() to create the long-format dataset above. Show the first 3 lines (head(3)), which should be similar to those above. Follow-up: Thinking forward to plotting reaction time vs day for each subject, what would you like to fix / change about this dataset?

# For cols, try 2 appproaches: using - and starts_with
sleep_wide |>
  pivot_longer(cols = -Subject, names_to = "day", values_to = "reaction_time")

# A tibble: 180 × 3
   Subject day   reaction_time
     <int> <chr>         <dbl>
 1     308 day_0          250.
 2     308 day_1          259.
 3     308 day_2          251.
 4     308 day_3          321.
 5     308 day_4          357.
 6     308 day_5          415.
 7     308 day_6          382.
 8     308 day_7          290.
 9     308 day_8          431.
10     308 day_9          466.
# ℹ 170 more rows

sleep_wide |>
  pivot_longer(cols = starts_with("day"), names_to = "day", values_to = "reaction_time")

# A tibble: 180 × 3
   Subject day   reaction_time
     <int> <chr>         <dbl>
 1     308 day_0          250.
 2     308 day_1          259.
 3     308 day_2          251.
 4     308 day_3          321.
 5     308 day_4          357.
 6     308 day_5          415.
 7     308 day_6          382.
 8     308 day_7          290.
 9     308 day_8          431.
10     308 day_9          466.
# ℹ 170 more rows
…
subjects/people

Part c

pivot_longer()

Exercise 2: Pivot longer

Part a

# For cols, try 2 appproaches: using - and starts_with
sleep_wide |>
  pivot_longer(cols = -Subject, names_to = "day", values_to = "reaction_time")

# A tibble: 180 × 3
   Subject day   reaction_time
     <int> <chr>         <dbl>
 1     308 day_0          250.
 2     308 day_1          259.
 3     308 day_2          251.
 4     308 day_3          321.
 5     308 day_4          357.
 6     308 day_5          415.
 7     308 day_6          382.
 8     308 day_7          290.
 9     308 day_8          431.
10     308 day_9          466.
# ℹ 170 more rows

sleep_wide |>
  pivot_longer(cols = starts_with("day"), names_to = "day", values_to = "reaction_time")

# A tibble: 180 × 3
   Subject day   reaction_time
     <int> <chr>         <dbl>
 1     308 day_0          250.
 2     308 day_1          259.
 3     308 day_2          251.
 4     308 day_3          321.
 5     308 day_4          357.
 6     308 day_5          415.
 7     308 day_6          382.
 8     308 day_7          290.
 9     308 day_8          431.
10     308 day_9          466.
# ℹ 170 more rows
…
