19 Strings – COMP/STAT112 Notebook
…
Exercise 6: Enrollment & departments

Explore enrollments by department. You decide what research questions to focus on. Use both visual and numerical summaries.

20 Which one is the department with the highest total enrollment

enrollments |>
  group_by(dept) |>
  summarize(total_enrollment = sum(enroll, na.rm = TRUE),
            n_sections = n()) |>
  arrange(desc(total_enrollment))

# A tibble: 38 × 3
   dept  total_enrollment n_sections
   <chr>            <dbl>      <int>
 1 PSYC               562         27
 2 ENVI               529         28
 3 ECON               525         27
 4 COMP               509         28
 5 POLI               476         27
 6 ENGL               447         30
 7 BIOL               446         23
 8 MATH               404         19
 9 STAT               397         19
10 SPAN               372         26
# ℹ 28 more rows
…
